{
  "name": "shared-animations",
  "$schema": "../../../node_modules/nx/schemas/project-schema.json",
  "sourceRoot": "libs/shared/animations/src",
  "prefix": "app",
  "tags": [],
  "projectType": "library",
  "targets": {
    "lint": {
      "executor": "@nx/linter:eslint",
      "outputs": ["{options.outputFile}"],
      "options": {
        "lintFilePatterns": ["libs/shared/animations/**/*.ts", "libs/shared/animations/**/*.html"]
      }
    }
  }
}
